<svg width="132" height="132" viewBox="0 0 132 132" fill="none" xmlns="http://www.w3.org/2000/svg">
<path d="M18.4776 103.414V34.4713H35.1789V63.3726H96.5508V34.4713H113.453V103.414H96.5508V70.9395H35.1789V103.414H18.4776Z" fill="white"/>
<path d="M57.5355 103.414V41.828H17.694V34.4713H114.279V41.828H74.4379V103.414H57.5355Z" fill="white"/>
</svg>
